[
	{
		"role": "root",
		"permissions": [
			"/"
		]
	},
	{
		"role": "ICAS Super User",
		"permissions": [
			"/analytics",
			"/collection/_get",
			"/collection/_put",
			"/collection/_post",
			"/collection/_delete",
			"/settings/_get",
			"/settings/_put",
			"/settings/_post",
			"/settings/_delete",
			"/users/own/_get",
			"/users/own/_put",
			"/users/own/_delete",
			"/users/own/password",
			"/users/own/activate",
			"/users/own/deactivate",
			"/users/own/picture/_get",
			"/users/own/picture/_put",
			"/users/own/invitation",
			"/users/_get",
			"/users/_post",
			"/users/one/_get",
			"/users/one/_put",
			"/users/one/_delete",
			"/users/one/password",
			"/users/one/activate",
			"/users/one/deactivate",
			"/users/one/picture/_get",
			"/users/one/picture/_put",
			"/users/one/invitation",
			"/view/usermanagement",
			"/view/clients-prioritization",
			"/view/cross-client-analysis",
			"/view/icas-summary",
			"/view/programme-info",
			"/view/dashboard",
			"/view/prioritization",
			"/view/stories",
			"/view/notes",
			"/view/settings",
			"/view/user"
		]
	},
	{
		"role": "ICAS Custodian",
		"permissions": [
			"/analytics",
			"/collection/_get",
			"/settings/_get",
			"/settings/_put",
			"/settings/_post",
			"/settings/_delete",
			"/users/own/_get",
			"/users/own/_put",
			"/users/own/_delete",
			"/users/own/password",
			"/users/own/activate",
			"/users/own/deactivate",
			"/users/own/picture/_get",
			"/users/own/picture/_put",
			"/users/own/invitation",
			"/users/one/picture/_get",
			"/users/_get",
			"/view/clients-prioritization",
			"/view/cross-client-analysis",
			"/view/icas-summary",
			"/view/programme-info",
			"/view/dashboard",
			"/view/prioritization",
			"/view/stories",
			"/view/notes",
			"/view/settings",
			"/view/user"
		]
	},
	{
		"role": "Client Custodian",
		"permissions": [
			"/analytics",
			"/collection/_get",
			"/settings/_get",
			"/users/own/_get",
			"/users/own/_put",
			"/users/own/_delete",
			"/users/own/password",
			"/users/own/activate",
			"/users/own/deactivate",
			"/users/own/picture/_get",
			"/users/own/picture/_put",
			"/users/own/invitation",
			"/users/one/picture/_get",
			"/users/_get",
			"/view/icas-summary",
			"/view/programme-info",
			"/view/dashboard/engagement",
			"/view/dashboard/health",
			"/view/dashboard/effectiveness",
			"/view/dashboard/quality",
			"/view/dashboard/roi",
			"/view/prioritization",
			"/view/stories/view-story",
			"/view/notes",
			"/view/user"
		]
	},
	{
		"role": "EXCO",
		"permissions": [
			"/analytics",
			"/collection/_get",
			"/settings/_get",
			"/users/own/_get",
			"/users/own/_put",
			"/users/own/_delete",
			"/users/own/password",
			"/users/own/activate",
			"/users/own/deactivate",
			"/users/own/picture/_get",
			"/users/own/picture/_put",
			"/users/own/invitation",
			"/users/one/picture/_get",
			"/users/_get",
			"/view/programme-info",
			"/view/dashboard/engagement",
			"/view/dashboard/health",
			"/view/dashboard/effectiveness",
			"/view/dashboard/quality",
			"/view/dashboard/roi",
			"/view/user"
		]
	}
]